<?xml version="1.0" encoding="UTF-8" standalone="no"?>
<!-- Created with Inkscape (http://www.inkscape.org/) -->

<svg
   xmlns:dc="http://purl.org/dc/elements/1.1/"
   xmlns:cc="http://creativecommons.org/ns#"
   xmlns:rdf="http://www.w3.org/1999/02/22-rdf-syntax-ns#"
   xmlns:svg="http://www.w3.org/2000/svg"
   xmlns="http://www.w3.org/2000/svg"
   xmlns:sodipodi="http://sodipodi.sourceforge.net/DTD/sodipodi-0.dtd"
   xmlns:inkscape="http://www.inkscape.org/namespaces/inkscape"
   width="210mm"
   height="297mm"
   viewBox="0 0 744.09448819 1052.3622047"
   id="svg4196"
   version="1.1"
   inkscape:version="0.91 r13725"
   sodipodi:docname="geom.svg">
  <defs
     id="defs4198" />
  <sodipodi:namedview
     id="base"
     pagecolor="#ffffff"
     bordercolor="#666666"
     borderopacity="1.0"
     inkscape:pageopacity="0.0"
     inkscape:pageshadow="2"
     inkscape:zoom="1.4"
     inkscape:cx="327.0793"
     inkscape:cy="664.78184"
     inkscape:document-units="px"
     inkscape:current-layer="layer1"
     showgrid="false"
     inkscape:window-width="1366"
     inkscape:window-height="744"
     inkscape:window-x="0"
     inkscape:window-y="24"
     inkscape:window-maximized="1" />
  <metadata
     id="metadata4201">
    <rdf:RDF>
      <cc:Work
         rdf:about="">
        <dc:format>image/svg+xml</dc:format>
        <dc:type
           rdf:resource="http://purl.org/dc/dcmitype/StillImage" />
        <dc:title></dc:title>
      </cc:Work>
    </rdf:RDF>
  </metadata>
  <g
     inkscape:label="Layer 1"
     inkscape:groupmode="layer"
     id="layer1">
    <g
       id="g4849"
       transform="matrix(0.7803452,0.62534899,-0.62534899,0.7803452,323.91598,-59.955291)"
       inkscape:export-filename="/home/fahri/Documents/bachelor_thesis/tex/fig/geom.png"
       inkscape:export-xdpi="300.20001"
       inkscape:export-ydpi="300.20001">
      <path
         inkscape:connector-curvature="0"
         id="path4810"
         d="m 234.74054,444.45694 24.24366,0"
         style="fill:#ff0000;fill-rule:evenodd;stroke:#ff0000;stroke-width:1;stroke-linecap:butt;stroke-linejoin:miter;stroke-opacity:1;stroke-miterlimit:4;stroke-dasharray:1,1;stroke-dashoffset:0" />
      <path
         inkscape:connector-curvature="0"
         id="path4810-5"
         d="m 235.08928,444.93046 0,-24.24366"
         style="fill:none;fill-rule:evenodd;stroke:#00ff00;stroke-width:1;stroke-linecap:butt;stroke-linejoin:miter;stroke-opacity:1;stroke-miterlimit:4;stroke-dasharray:1,1;stroke-dashoffset:0" />
      <circle
         r="2.3214285"
         cy="444.50507"
         cx="235"
         id="path4744"
         style="fill:#ffff00;fill-opacity:1;stroke:#ffff00;stroke-width:2;stroke-linecap:butt;stroke-linejoin:miter;stroke-miterlimit:4;stroke-dasharray:none;stroke-dashoffset:0;stroke-opacity:1" />
      <text
         sodipodi:linespacing="125%"
         id="text4827"
         y="446.39694"
         x="259.23038"
         style="font-style:normal;font-variant:normal;font-weight:normal;font-stretch:normal;font-size:22.5px;line-height:125%;font-family:ubuntu;-inkscape-font-specification:'ubuntu, Normal';text-align:start;letter-spacing:0px;word-spacing:0px;writing-mode:lr-tb;text-anchor:start;fill:#ff0000;fill-opacity:1;stroke:none;stroke-width:1px;stroke-linecap:butt;stroke-linejoin:miter;stroke-opacity:1"
         xml:space="preserve"><tspan
           style="font-size:7.5px;fill:#ff0000;stroke:none"
           y="446.39694"
           x="259.23038"
           id="tspan4829"
           sodipodi:role="line">x</tspan></text>
      <text
         sodipodi:linespacing="125%"
         id="text4827-3"
         y="418.29489"
         x="233.45679"
         style="font-style:normal;font-variant:normal;font-weight:normal;font-stretch:normal;font-size:22.5px;line-height:125%;font-family:ubuntu;-inkscape-font-specification:'ubuntu, Normal';text-align:start;letter-spacing:0px;word-spacing:0px;writing-mode:lr-tb;text-anchor:start;fill:#00ff00;fill-opacity:1;stroke:none;stroke-width:1px;stroke-linecap:butt;stroke-linejoin:miter;stroke-opacity:1"
         xml:space="preserve"><tspan
           style="font-size:7.5px;fill:#00ff00;stroke:none"
           y="418.29489"
           x="233.45679"
           id="tspan4829-5"
           sodipodi:role="line">y</tspan></text>
    </g>
    <g
       id="g4911"
       transform="translate(-178.57143,-131.42857)"
       inkscape:export-filename="/home/fahri/Documents/bachelor_thesis/tex/fig/geom.png"
       inkscape:export-xdpi="300.20001"
       inkscape:export-ydpi="300.20001">
      <circle
         r="49.642857"
         cy="459.50507"
         cx="447.85715"
         id="path4744-3-9"
         style="fill:#cccccc;fill-opacity:1;stroke:#cccccc;stroke-width:2;stroke-linecap:butt;stroke-linejoin:miter;stroke-miterlimit:4;stroke-dasharray:none;stroke-dashoffset:0;stroke-opacity:1" />
      <circle
         r="3.9285707"
         cy="459.50507"
         cx="447.85715"
         id="path4744-3-62-1"
         style="fill:#000000;fill-opacity:1;stroke:none;stroke-width:2;stroke-linecap:butt;stroke-linejoin:miter;stroke-miterlimit:4;stroke-dasharray:none;stroke-dashoffset:0;stroke-opacity:1" />
      <path
         inkscape:connector-curvature="0"
         id="path4899"
         d="m 447.75012,460.16027 32.39089,38.24463"
         style="fill:none;fill-rule:evenodd;stroke:#000000;stroke-width:1px;stroke-linecap:butt;stroke-linejoin:miter;stroke-opacity:1"
         sodipodi:nodetypes="cc" />
      <text
         sodipodi:linespacing="125%"
         id="text4901"
         y="484.32651"
         x="459.28571"
         style="font-style:normal;font-variant:normal;font-weight:normal;font-stretch:normal;font-size:7.5px;line-height:125%;font-family:ubuntu;-inkscape-font-specification:'ubuntu, Normal';text-align:start;letter-spacing:0px;word-spacing:0px;writing-mode:lr-tb;text-anchor:start;fill:#000000;fill-opacity:1;stroke:none;stroke-width:1px;stroke-linecap:butt;stroke-linejoin:miter;stroke-opacity:1"
         xml:space="preserve"><tspan
           y="484.32651"
           x="459.28571"
           id="tspan4903"
           sodipodi:role="line">ρ</tspan></text>
      <text
         sodipodi:linespacing="125%"
         id="text4905"
         y="468.61221"
         x="444.10715"
         style="font-style:normal;font-variant:normal;font-weight:normal;font-stretch:normal;font-size:7.5px;line-height:125%;font-family:ubuntu;-inkscape-font-specification:'ubuntu, Normal';text-align:start;letter-spacing:0px;word-spacing:0px;writing-mode:lr-tb;text-anchor:start;fill:#000000;fill-opacity:1;stroke:none;stroke-width:1px;stroke-linecap:butt;stroke-linejoin:miter;stroke-opacity:1"
         xml:space="preserve"><tspan
           y="468.61221"
           x="444.10715"
           id="tspan4907"
           sodipodi:role="line">p<tspan
   id="tspan4909"
   style="font-size:64.99999762%;baseline-shift:sub">c</tspan></tspan></text>
    </g>
    <g
       transform="translate(-217.85715,49.999996)"
       id="g4911-0"
       inkscape:export-filename="/home/fahri/Documents/bachelor_thesis/tex/fig/geom.png"
       inkscape:export-xdpi="300.20001"
       inkscape:export-ydpi="300.20001">
      <circle
         r="49.642857"
         cy="459.50507"
         cx="447.85715"
         id="path4744-3-9-9"
         style="fill:#cccccc;fill-opacity:1;stroke:#cccccc;stroke-width:2;stroke-linecap:butt;stroke-linejoin:miter;stroke-miterlimit:4;stroke-dasharray:none;stroke-dashoffset:0;stroke-opacity:1" />
      <circle
         r="3.9285707"
         cy="459.50507"
         cx="447.85715"
         id="path4744-3-62-1-3"
         style="fill:#000000;fill-opacity:1;stroke:none;stroke-width:2;stroke-linecap:butt;stroke-linejoin:miter;stroke-miterlimit:4;stroke-dasharray:none;stroke-dashoffset:0;stroke-opacity:1" />
      <path
         inkscape:connector-curvature="0"
         id="path4899-6"
         d="m 447.75012,460.16027 -15.8234,-49.0768"
         style="fill:none;fill-rule:evenodd;stroke:#000000;stroke-width:1px;stroke-linecap:butt;stroke-linejoin:miter;stroke-opacity:1"
         sodipodi:nodetypes="cc" />
      <text
         sodipodi:linespacing="125%"
         id="text4901-0"
         y="443.4389"
         x="443.90408"
         style="font-style:normal;font-variant:normal;font-weight:normal;font-stretch:normal;font-size:7.5px;line-height:125%;font-family:ubuntu;-inkscape-font-specification:'ubuntu, Normal';text-align:start;letter-spacing:0px;word-spacing:0px;writing-mode:lr-tb;text-anchor:start;fill:#000000;fill-opacity:1;stroke:none;stroke-width:1px;stroke-linecap:butt;stroke-linejoin:miter;stroke-opacity:1"
         xml:space="preserve"><tspan
           y="443.4389"
           x="443.90408"
           id="tspan4903-6"
           sodipodi:role="line">ρ</tspan></text>
      <text
         sodipodi:linespacing="125%"
         id="text4905-2"
         y="468.61221"
         x="444.10715"
         style="font-style:normal;font-variant:normal;font-weight:normal;font-stretch:normal;font-size:7.5px;line-height:125%;font-family:ubuntu;-inkscape-font-specification:'ubuntu, Normal';text-align:start;letter-spacing:0px;word-spacing:0px;writing-mode:lr-tb;text-anchor:start;fill:#000000;fill-opacity:1;stroke:none;stroke-width:1px;stroke-linecap:butt;stroke-linejoin:miter;stroke-opacity:1"
         xml:space="preserve"><tspan
           y="468.61221"
           x="444.10715"
           id="tspan4907-6"
           sodipodi:role="line">p<tspan
   id="tspan4909-1"
   style="font-size:64.99999762%;baseline-shift:sub">c</tspan></tspan></text>
    </g>
    <g
       transform="translate(-65.000004,5.7142813)"
       id="g4911-8"
       inkscape:export-filename="/home/fahri/Documents/bachelor_thesis/tex/fig/geom.png"
       inkscape:export-xdpi="300.20001"
       inkscape:export-ydpi="300.20001">
      <circle
         r="49.642857"
         cy="459.50507"
         cx="447.85715"
         id="path4744-3-9-7"
         style="fill:#cccccc;fill-opacity:1;stroke:#cccccc;stroke-width:2;stroke-linecap:butt;stroke-linejoin:miter;stroke-miterlimit:4;stroke-dasharray:none;stroke-dashoffset:0;stroke-opacity:1" />
      <circle
         r="3.9285707"
         cy="459.50507"
         cx="447.85715"
         id="path4744-3-62-1-9"
         style="fill:#000000;fill-opacity:1;stroke:none;stroke-width:2;stroke-linecap:butt;stroke-linejoin:miter;stroke-miterlimit:4;stroke-dasharray:none;stroke-dashoffset:0;stroke-opacity:1" />
      <path
         inkscape:connector-curvature="0"
         id="path4899-2"
         d="m 447.75012,460.16027 44.1766,-25.50537"
         style="fill:none;fill-rule:evenodd;stroke:#000000;stroke-width:1px;stroke-linecap:butt;stroke-linejoin:miter;stroke-opacity:1" />
      <text
         sodipodi:linespacing="125%"
         id="text4901-02"
         y="446.46936"
         x="464.10715"
         style="font-style:normal;font-variant:normal;font-weight:normal;font-stretch:normal;font-size:7.5px;line-height:125%;font-family:ubuntu;-inkscape-font-specification:'ubuntu, Normal';text-align:start;letter-spacing:0px;word-spacing:0px;writing-mode:lr-tb;text-anchor:start;fill:#000000;fill-opacity:1;stroke:none;stroke-width:1px;stroke-linecap:butt;stroke-linejoin:miter;stroke-opacity:1"
         xml:space="preserve"><tspan
           y="446.46936"
           x="464.10715"
           id="tspan4903-3"
           sodipodi:role="line">ρ</tspan></text>
      <text
         sodipodi:linespacing="125%"
         id="text4905-7"
         y="468.61221"
         x="444.10715"
         style="font-style:normal;font-variant:normal;font-weight:normal;font-stretch:normal;font-size:7.5px;line-height:125%;font-family:ubuntu;-inkscape-font-specification:'ubuntu, Normal';text-align:start;letter-spacing:0px;word-spacing:0px;writing-mode:lr-tb;text-anchor:start;fill:#000000;fill-opacity:1;stroke:none;stroke-width:1px;stroke-linecap:butt;stroke-linejoin:miter;stroke-opacity:1"
         xml:space="preserve"><tspan
           y="468.61221"
           x="444.10715"
           id="tspan4907-5"
           sodipodi:role="line">p<tspan
   id="tspan4909-9"
   style="font-size:64.99999762%;baseline-shift:sub">c</tspan></tspan></text>
    </g>
    <g
       id="g4849-2"
       transform="matrix(0.99998254,0.00590663,-0.00590663,0.99998254,-77.863363,114.23602)"
       inkscape:export-filename="/home/fahri/Documents/bachelor_thesis/tex/fig/geom.png"
       inkscape:export-xdpi="300.20001"
       inkscape:export-ydpi="300.20001">
      <path
         inkscape:connector-curvature="0"
         id="path4810-8"
         d="m 234.74054,444.45694 24.24366,0"
         style="fill:#ff0000;fill-rule:evenodd;stroke:#ff0000;stroke-width:1px;stroke-linecap:butt;stroke-linejoin:miter;stroke-opacity:1" />
      <path
         inkscape:connector-curvature="0"
         id="path4810-5-9"
         d="m 235.08928,444.93046 0,-24.24366"
         style="fill:none;fill-rule:evenodd;stroke:#00ff00;stroke-width:1px;stroke-linecap:butt;stroke-linejoin:miter;stroke-opacity:1" />
      <circle
         r="2.3214285"
         cy="444.06238"
         cx="235.12366"
         id="path4744-2"
         style="fill:#00ffff;fill-opacity:1;stroke:#00ffff;stroke-width:2;stroke-linecap:butt;stroke-linejoin:miter;stroke-miterlimit:4;stroke-dasharray:none;stroke-dashoffset:0;stroke-opacity:1" />
      <text
         sodipodi:linespacing="125%"
         id="text4827-7"
         y="446.39694"
         x="259.23038"
         style="font-style:normal;font-variant:normal;font-weight:normal;font-stretch:normal;font-size:22.5px;line-height:125%;font-family:ubuntu;-inkscape-font-specification:'ubuntu, Normal';text-align:start;letter-spacing:0px;word-spacing:0px;writing-mode:lr-tb;text-anchor:start;fill:#ff0000;fill-opacity:1;stroke:none;stroke-width:1px;stroke-linecap:butt;stroke-linejoin:miter;stroke-opacity:1"
         xml:space="preserve"><tspan
           style="font-size:7.5px;fill:#ff0000;stroke:none"
           y="446.39694"
           x="259.23038"
           id="tspan4829-3"
           sodipodi:role="line">x</tspan></text>
      <text
         sodipodi:linespacing="125%"
         id="text4827-3-6"
         y="418.29489"
         x="233.45679"
         style="font-style:normal;font-variant:normal;font-weight:normal;font-stretch:normal;font-size:22.5px;line-height:125%;font-family:ubuntu;-inkscape-font-specification:'ubuntu, Normal';text-align:start;letter-spacing:0px;word-spacing:0px;writing-mode:lr-tb;text-anchor:start;fill:#00ff00;fill-opacity:1;stroke:none;stroke-width:1px;stroke-linecap:butt;stroke-linejoin:miter;stroke-opacity:1"
         xml:space="preserve"><tspan
           style="font-size:7.5px;fill:#00ff00;stroke:none"
           y="418.29489"
           x="233.45679"
           id="tspan4829-5-1"
           sodipodi:role="line">y</tspan></text>
    </g>
  </g>
</svg>
