fig 3 : r = 0.5
[WARN] [1541920248.143830]: service call success : model: "integrator2d"
cost: 7.40451563503
time: 4.84707681233
trajectory: 
  - 
    n: 4
    t: 
      data: 
        secs: 0
        nsecs:         0
    state: [2.3000000000000327, -2.3000000000000327, 0.9999999999999982, -0.9999999999999982]
  - 
    n: 4
    t: 
      data: 
        secs: 0
        nsecs: 484707681
    state: [2.628213221799106, -2.628213221799106, 0.37376308688991067, -0.37376308688991067]
  - 
    n: 4
    t: 
      data: 
        secs: 0
        nsecs: 969415362
    state: [2.6812258319788125, -2.6812258319788125, -0.13553228997349143, 0.13553228997349143]
  - 
    n: 4
    t: 
      data: 
        secs: 1
        nsecs: 454123044
    state: [2.5157202914131584, -2.5157202914131584, -0.5278861305902072, 0.5278861305902072]
  - 
    n: 4
    t: 
      data: 
        secs: 1
        nsecs: 938830725
    state: [2.1883790609761524, -2.1883790609761524, -0.8032984349602361, 0.8032984349602361]
  - 
    n: 4
    t: 
      data: 
        secs: 2
        nsecs: 423538406
    state: [1.7558846015417964, -1.7558846015417964, -0.9617692030835796, 0.9617692030835796]
  - 
    n: 4
    t: 
      data: 
        secs: 2
        nsecs: 908246087
    state: [1.2749193739840987, -1.2749193739840987, -1.0032984349602363, 1.0032984349602363]
  - 
    n: 4
    t: 
      data: 
        secs: 3
        nsecs: 392953769
    state: [0.8021658391770644, -0.8021658391770644, -0.9278861305902065, 0.9278861305902065]
  - 
    n: 4
    t: 
      data: 
        secs: 3
        nsecs: 877661450
    state: [0.3943064579946991, -0.3943064579946991, -0.7355322899734907, 0.7355322899734907]
  - 
    n: 4
    t: 
      data: 
        secs: 4
        nsecs: 362369131
    state: [0.1080236913110089, -0.1080236913110089, -0.42623691311008816, 0.42623691311008816]
  - 
    n: 4
    t: 
      data: 
        secs: 4
        nsecs: 847076812
    state: [0.0, 0.0, 0.0, 0.0]
inputs: 
  - 
    n: 2
    t: 
      data: 
        secs: 0
        nsecs:         0
    state: [-1.4126198278745465, 1.4126198278745465]
  - 
    n: 2
    t: 
      data: 
        secs: 0
        nsecs:         0
    state: [-1.1713578450870905, 1.1713578450870905]
  - 
    n: 2
    t: 
      data: 
        secs: 0
        nsecs:         0
    state: [-0.9300958622996345, 0.9300958622996345]
  - 
    n: 2
    t: 
      data: 
        secs: 0
        nsecs:         0
    state: [-0.6888338795121784, 0.6888338795121784]
  - 
    n: 2
    t: 
      data: 
        secs: 0
        nsecs:         0
    state: [-0.4475718967247224, 0.4475718967247224]
  - 
    n: 2
    t: 
      data: 
        secs: 0
        nsecs:         0
    state: [-0.2063099139372664, 0.2063099139372664]
  - 
    n: 2
    t: 
      data: 
        secs: 0
        nsecs:         0
    state: [0.034952068850189644, -0.034952068850189644]
  - 
    n: 2
    t: 
      data: 
        secs: 0
        nsecs:         0
    state: [0.2762140516376457, -0.2762140516376457]
  - 
    n: 2
    t: 
      data: 
        secs: 0
        nsecs:         0
    state: [0.5174760344251017, -0.5174760344251017]
  - 
    n: 2
    t: 
      data: 
        secs: 0
        nsecs:         0
    state: [0.758738017212558, -0.758738017212558]
  - 
    n: 2
    t: 
      data: 
        secs: 0
        nsecs:         0
    state: [1.0000000000000138, -1.0000000000000138]


